SDP/Prac2/simulation/qsim/prac2.msim.vcd
$comment
	File created using the following command:
		vcd file prac2.msim.vcd -direction
$end
$date
	Wed Mar 08 12:33:01 2023
$end
$version
	ModelSim Version 10.5b
$end
$timescale
	1ps
$end

$scope module COUNT_vlg_vec_tst $end
$var reg 1 ! CLK $end
$var reg 1 " RST_n $end
$var wire 1 # EN $end
$var wire 1 $ TC $end
$var wire 1 % cuenta [10] $end
$var wire 1 & cuenta [9] $end
$var wire 1 ' cuenta [8] $end
$var wire 1 ( cuenta [7] $end
$var wire 1 ) cuenta [6] $end
$var wire 1 * cuenta [5] $end
$var wire 1 + cuenta [4] $end
$var wire 1 , cuenta [3] $end
$var wire 1 - cuenta [2] $end
$var wire 1 . cuenta [1] $end
$var wire 1 / cuenta [0] $end

$scope module i1 $end
$var wire 1 0 gnd $end
$var wire 1 1 vcc $end
$var wire 1 2 unknown $end
$var tri1 1 3 devclrn $end
$var tri1 1 4 devpor $end
$var tri1 1 5 devoe $end
$var wire 1 6 CLK~input_o $end
$var wire 1 7 RST_n~input_o $end
$var wire 1 8 EN~output_o $end
$var wire 1 9 cuenta[0]~output_o $end
$var wire 1 : cuenta[1]~output_o $end
$var wire 1 ; cuenta[2]~output_o $end
$var wire 1 < cuenta[3]~output_o $end
$var wire 1 = cuenta[4]~output_o $end
$var wire 1 > cuenta[5]~output_o $end
$var wire 1 ? cuenta[6]~output_o $end
$var wire 1 @ cuenta[7]~output_o $end
$var wire 1 A cuenta[8]~output_o $end
$var wire 1 B cuenta[9]~output_o $end
$var wire 1 C cuenta[10]~output_o $end
$var wire 1 D TC~output_o $end
$upscope $end
$upscope $end
$enddefinitions $end
#0
$dumpvars
0!
1"
0#
0$
0/
0.
0-
0,
0+
0*
0)
0(
0'
0&
0%
00
11
x2
13
14
15
06
17
08
09
0:
0;
0<
0=
0>
0?
0@
0A
0B
0C
0D
$end
#50000
1!
16
#100000
0!
06
#150000
1!
16
#200000
0!
06
#250000
1!
16
#300000
0!
06
#350000
1!
16
#400000
0!
06
#450000
1!
16
#500000
0!
06
#550000
1!
16
#600000
0!
06
#650000
1!
16
#700000
0!
06
#750000
1!
16
#800000
0!
06
#850000
1!
16
#900000
0!
06
#950000
1!
16
