SDP/Prac3/simulation/qsim/motor.msim.vcd
$comment
	File created using the following command:
		vcd file motor.msim.vcd -direction
$end
$date
	Sat May 06 12:56:12 2023
$end
$version
	ModelSim Version 10.5b
$end
$timescale
	1ps
$end

$scope module FSM_luces_kit_medvedev_vlg_vec_tst $end
$var reg 1 ! clk $end
$var reg 1 " reset $end
$var wire 1 # LEDG [7] $end
$var wire 1 $ LEDG [6] $end
$var wire 1 % LEDG [5] $end
$var wire 1 & LEDG [4] $end
$var wire 1 ' LEDG [3] $end
$var wire 1 ( LEDG [2] $end
$var wire 1 ) LEDG [1] $end
$var wire 1 * LEDG [0] $end

$scope module i1 $end
$var wire 1 + gnd $end
$var wire 1 , vcc $end
$var wire 1 - unknown $end
$var tri1 1 . devclrn $end
$var tri1 1 / devpor $end
$var tri1 1 0 devoe $end
$var wire 1 1 LEDG[0]~output_o $end
$var wire 1 2 LEDG[1]~output_o $end
$var wire 1 3 LEDG[2]~output_o $end
$var wire 1 4 LEDG[3]~output_o $end
$var wire 1 5 LEDG[4]~output_o $end
$var wire 1 6 LEDG[5]~output_o $end
$var wire 1 7 LEDG[6]~output_o $end
$var wire 1 8 LEDG[7]~output_o $end
$var wire 1 9 clk~input_o $end
$var wire 1 : clk~inputclkctrl_outclk $end
$var wire 1 ; estado_actual.ESTADO_0~feeder_combout $end
$var wire 1 < reset~input_o $end
$var wire 1 = reset~inputclkctrl_outclk $end
$var wire 1 > estado_actual.ESTADO_0~q $end
$var wire 1 ? estado_siguiente~0_combout $end
$var wire 1 @ estado_actual.ESTADO_1~q $end
$var wire 1 A estado_actual.ESTADO_2~feeder_combout $end
$var wire 1 B estado_actual.ESTADO_2~q $end
$var wire 1 C estado_actual.ESTADO_3~feeder_combout $end
$var wire 1 D estado_actual.ESTADO_3~q $end
$var wire 1 E estado_actual.ESTADO_4~feeder_combout $end
$var wire 1 F estado_actual.ESTADO_4~q $end
$var wire 1 G estado_actual.ESTADO_5~feeder_combout $end
$var wire 1 H estado_actual.ESTADO_5~q $end
$var wire 1 I estado_actual.ESTADO_6~feeder_combout $end
$var wire 1 J estado_actual.ESTADO_6~q $end
$var wire 1 K estado_actual.ESTADO_7~feeder_combout $end
$var wire 1 L estado_actual.ESTADO_7~q $end
$var wire 1 M LEDG~0_combout $end
$upscope $end
$upscope $end
$enddefinitions $end
#0
$dumpvars
0!
1"
0*
0)
0(
0'
0&
0%
0$
1#
0+
1,
x-
1.
1/
10
01
02
03
04
05
06
07
18
09
0:
1;
1<
1=
0>
1?
0@
0A
0B
0C
0D
0E
0F
0G
0H
0I
0J
0K
0L
0M
$end
#10000
1!
19
1:
1@
1>
08
0#
1M
1A
0?
17
1$
#20000
0!
09
0:
#30000
1!
19
1:
0@
1B
16
1%
0M
0A
1C
07
0$
#40000
0!
09
0:
#50000
1!
19
1:
1D
0B
06
15
1&
0%
1E
0C
#60000
0!
09
0:
#70000
1!
19
1:
1F
0D
05
14
1'
0&
1G
0E
#80000
0!
09
0:
#90000
1!
19
1:
1H
0F
04
13
1(
0'
1I
0G
#100000
0!
09
0:
#110000
1!
19
1:
1J
0H
03
12
1)
0(
1K
0I
#120000
0!
09
0:
#130000
1!
19
1:
1L
0J
02
11
1*
0)
1?
0K
#140000
0!
09
0:
#150000
1!
19
1:
1@
0L
01
0*
1M
1A
0?
17
1$
#160000
0!
09
0:
#170000
1!
19
1:
0@
1B
16
1%
0M
0A
1C
07
0$
#180000
0!
09
0:
#190000
1!
19
1:
1D
0B
06
15
1&
0%
1E
0C
#200000
0!
09
0:
#210000
1!
19
1:
1F
0D
05
14
1'
0&
1G
0E
#220000
0!
09
0:
#230000
1!
19
1:
1H
0F
04
13
1(
0'
1I
0G
#240000
0!
09
0:
#250000
1!
19
1:
1J
0H
03
12
1)
0(
1K
0I
#260000
0!
09
0:
#270000
1!
19
1:
1L
0J
02
11
1*
0)
1?
0K
#280000
0!
09
0:
#290000
1!
19
1:
1@
0L
01
0*
1M
1A
0?
17
1$
#300000
0!
09
0:
#310000
1!
19
1:
0@
1B
16
1%
0M
0A
1C
07
0$
#320000
0!
09
0:
#330000
1!
19
1:
1D
0B
06
15
1&
0%
1E
0C
#340000
0!
09
0:
#350000
1!
19
1:
1F
0D
05
14
1'
0&
1G
0E
#360000
0!
09
0:
#370000
1!
19
1:
1H
0F
04
13
1(
0'
1I
0G
#380000
0!
09
0:
#390000
1!
19
1:
1J
0H
03
12
1)
0(
1K
0I
#400000
0!
09
0:
#410000
1!
19
1:
1L
0J
02
11
1*
0)
1?
0K
#420000
0!
09
0:
#430000
1!
19
1:
1@
0L
01
0*
1M
1A
0?
17
1$
#440000
0!
09
0:
#450000
1!
19
1:
0@
1B
16
1%
0M
0A
1C
07
0$
#460000
0!
09
0:
#470000
1!
19
1:
1D
0B
06
15
1&
0%
1E
0C
#480000
0!
09
0:
#490000
1!
19
1:
1F
0D
05
14
1'
0&
1G
0E
#500000
0!
09
0:
#510000
1!
19
1:
1H
0F
04
13
1(
0'
1I
0G
#520000
0!
09
0:
#530000
1!
19
1:
1J
0H
03
12
1)
0(
1K
0I
#540000
0!
09
0:
#550000
1!
19
1:
1L
0J
02
11
1*
0)
1?
0K
#560000
0!
09
0:
#570000
1!
19
1:
1@
0L
01
0*
1M
1A
0?
17
1$
#580000
0!
09
0:
#590000
1!
19
1:
0@
1B
16
1%
0M
0A
1C
07
0$
#600000
0!
09
0:
#610000
1!
19
1:
1D
0B
06
15
1&
0%
1E
0C
#620000
0!
09
0:
#630000
1!
19
1:
1F
0D
05
14
1'
0&
1G
0E
#640000
0!
09
0:
#650000
1!
19
1:
1H
0F
04
13
1(
0'
1I
0G
#660000
0!
09
0:
#670000
1!
19
1:
1J
0H
03
12
1)
0(
1K
0I
#680000
0!
09
0:
#690000
1!
19
1:
1L
0J
02
11
1*
0)
1?
0K
#700000
0!
09
0:
#710000
1!
19
1:
1@
0L
01
0*
1M
1A
0?
17
1$
#720000
0!
09
0:
#730000
1!
19
1:
0@
1B
16
1%
0M
0A
1C
07
0$
#740000
0!
09
0:
#750000
1!
19
1:
1D
0B
06
15
1&
0%
1E
0C
#760000
0!
09
0:
#770000
1!
19
1:
1F
0D
05
14
1'
0&
1G
0E
#780000
0!
09
0:
#790000
1!
19
1:
1H
0F
04
13
1(
0'
1I
0G
#800000
0!
09
0:
#810000
1!
19
1:
1J
0H
03
12
1)
0(
1K
0I
#820000
0!
09
0:
#830000
1!
19
1:
1L
0J
02
11
1*
0)
1?
0K
#840000
0!
09
0:
#850000
1!
19
1:
1@
0L
01
0*
1M
1A
0?
17
1$
#860000
0!
09
0:
#870000
1!
19
1:
0@
1B
16
1%
0M
0A
1C
07
0$
#880000
0!
09
0:
#890000
1!
19
1:
1D
0B
06
15
1&
0%
1E
0C
#900000
0!
09
0:
#910000
1!
19
1:
1F
0D
05
14
1'
0&
1G
0E
#920000
0!
09
0:
#930000
1!
19
1:
1H
0F
04
13
1(
0'
1I
0G
#940000
0!
09
0:
#950000
1!
19
1:
1J
0H
03
12
1)
0(
1K
0I
#960000
0!
09
0:
#970000
1!
19
1:
1L
0J
02
11
1*
0)
1?
0K
#980000
0!
09
0:
#990000
1!
19
1:
1@
0L
01
0*
1M
1A
0?
17
1$
